<?xml version="1.0" standalone="no"?>
<!DOCTYPE svg PUBLIC "-//W3C//DTD SVG 20010904//EN"
 "http://www.w3.org/TR/2001/REC-SVG-20010904/DTD/svg10.dtd">
<svg version="1.0" xmlns="http://www.w3.org/2000/svg"
 width="1000.000000pt" height="568.000000pt" viewBox="0 0 1000.000000 568.000000"
 preserveAspectRatio="xMidYMid meet">

<g transform="translate(0.000000,568.000000) scale(0.100000,-0.100000)"
fill="#000000" stroke="none">
<path d="M2018 3550 c-48 -14 -96 -49 -120 -88 -22 -36 -23 -45 -26 -296 -4
-295 1 -319 68 -380 62 -56 170 -73 261 -41 95 34 140 107 142 233 l2 85 -52
-1 c-29 0 -71 -1 -93 -1 l-40 -1 0 -75 c0 -62 -4 -79 -20 -95 -24 -24 -39 -25
-66 -6 -18 13 -19 30 -22 251 -3 259 1 285 53 285 37 0 55 -35 55 -108 l0 -63
92 3 93 3 -3 75 c-5 120 -49 188 -141 219 -39 13 -142 13 -183 1z"/>
<path d="M2576 3545 c-49 -17 -93 -59 -117 -110 -16 -35 -19 -68 -19 -280 0
-144 5 -256 11 -280 15 -54 82 -118 143 -135 71 -20 167 -9 223 26 66 41 94
98 100 208 l6 86 -67 1 c-36 1 -78 1 -93 2 -28 1 -28 0 -31 -63 -3 -87 -9
-107 -32 -120 -30 -16 -57 -4 -68 30 -14 38 -16 439 -3 473 13 35 55 46 81 22
16 -15 20 -31 20 -87 l0 -69 93 3 92 3 3 38 c5 54 -15 140 -41 179 -34 52
-116 88 -196 88 -36 -1 -83 -7 -105 -15z"/>
<path d="M3634 3535 c-69 -35 -96 -80 -102 -171 -8 -120 17 -159 170 -275 91
-70 118 -105 118 -153 0 -43 -33 -71 -74 -60 -34 8 -40 18 -46 84 l-5 55 -87
3 -88 3 0 -71 c0 -154 94 -230 268 -218 149 11 232 101 219 238 -8 97 -47 150
-183 253 -74 56 -124 111 -124 137 0 25 34 60 58 60 37 0 56 -26 62 -81 l5
-54 85 0 85 0 0 75 c-1 97 -24 138 -97 174 -74 37 -192 37 -264 1z"/>
<path d="M4225 3545 c-80 -28 -125 -105 -125 -210 1 -93 29 -132 199 -267 96
-77 120 -130 77 -172 -53 -54 -106 -20 -106 69 l0 55 -91 0 -91 0 3 -78 c5
-95 34 -149 102 -184 61 -32 214 -33 272 -1 76 40 115 103 115 184 0 112 -37
166 -208 302 -84 68 -108 104 -91 141 15 31 54 42 84 22 18 -12 25 -29 30 -71
l7 -55 84 0 84 0 0 58 c0 115 -42 184 -127 210 -54 16 -169 14 -218 -3z"/>
<path d="M8126 3537 c-22 -12 -53 -39 -69 -59 -26 -32 -31 -48 -35 -113 l-5
-76 78 3 79 3 4 55 c2 30 8 63 13 72 14 26 64 23 83 -4 34 -48 15 -113 -58
-198 -66 -76 -87 -121 -89 -188 l-2 -57 65 0 65 0 6 35 c8 52 30 87 104 169
77 85 95 121 95 190 0 126 -74 191 -220 191 -59 0 -83 -5 -114 -23z"/>
<path d="M1405 3528 c-2 -13 -32 -171 -65 -353 -33 -181 -65 -352 -70 -378 -6
-26 -10 -50 -10 -53 0 -3 42 -3 93 -2 l92 3 9 65 c5 36 12 67 17 70 4 3 34 4
67 2 l59 -4 7 -60 c3 -33 8 -64 12 -69 3 -5 48 -9 100 -9 93 0 94 0 89 23 -7
34 -48 245 -101 530 l-48 257 -123 0 c-119 0 -123 -1 -128 -22z m150 -298 c9
-85 18 -165 21 -177 4 -21 1 -23 -41 -23 -42 0 -45 2 -45 27 0 28 26 253 37
313 8 47 9 39 28 -140z"/>
<path d="M3010 3145 l0 -405 210 0 210 0 0 80 0 80 -115 0 -115 0 0 90 0 90
98 0 97 0 0 75 0 75 -97 0 -98 0 0 80 0 80 110 0 110 0 0 80 0 80 -205 0 -205
0 0 -405z"/>
<path d="M4930 3145 l0 -405 153 0 c83 0 170 5 192 11 51 14 110 73 124 124
15 53 15 497 0 550 -14 50 -64 100 -114 114 -22 6 -111 11 -197 11 l-158 0 0
-405z m268 249 c22 -15 22 -19 22 -249 0 -230 0 -234 -22 -249 -12 -9 -35 -16
-50 -16 l-28 0 0 265 0 265 28 0 c15 0 38 -7 50 -16z"/>
<path d="M5502 3148 l3 -403 210 0 210 0 0 75 0 75 -117 3 -118 3 0 89 0 90
100 0 100 0 0 75 0 75 -100 0 -100 0 0 80 0 80 115 0 115 0 0 80 0 80 -210 0
-210 0 2 -402z"/>
<path d="M6020 3145 l0 -405 90 0 90 0 1 243 0 242 44 -140 c24 -77 58 -186
75 -242 l31 -103 99 0 100 0 0 405 0 405 -90 0 -90 0 -1 -227 c0 -126 -3 -221
-7 -213 -3 8 -36 110 -72 225 l-66 210 -102 3 -102 3 0 -406z"/>
<path d="M6650 3145 l0 -405 95 0 95 0 0 405 0 405 -95 0 -95 0 0 -405z"/>
<path d="M6937 3183 c-3 -203 -5 -384 -4 -403 l2 -35 213 -3 212 -2 0 80 0 80
-120 0 -120 0 0 90 0 90 100 0 100 0 0 75 0 74 -97 3 -98 3 -3 78 -3 77 116 0
115 0 0 80 0 80 -203 0 -204 0 -6 -367z"/>
<path d="M7450 3145 l0 -405 153 0 c178 0 229 12 276 66 17 18 35 50 40 71 15
51 14 496 0 548 -14 50 -64 100 -114 114 -22 6 -111 11 -197 11 l-158 0 0
-405z m272 248 c16 -15 18 -36 18 -249 0 -229 0 -233 -22 -248 -12 -9 -35 -16
-50 -16 l-28 0 0 265 0 265 32 0 c17 0 40 -7 50 -17z"/>
<path d="M8580 3388 c0 -147 25 -375 44 -406 6 -10 72 -10 82 1 18 18 43 252
44 405 l0 162 -85 0 -85 0 0 -162z"/>
<path d="M8104 2917 c-3 -8 -4 -49 -2 -93 l3 -79 83 -3 82 -3 0 96 0 95 -80 0
c-58 0 -82 -4 -86 -13z"/>
<path d="M8580 2835 l0 -95 85 0 85 0 0 95 0 95 -85 0 -85 0 0 -95z"/>
</g>
</svg>
